{
  "$id": "MPBibliographyItem.json",
  "additionalProperties": false,
  "properties": {
    "library_id": {
      "allOf": [
        {
          "$ref": "strings.json#/definitions/_id"
        },
        {
          "type": "string",
          "pattern": "^(MP)?Library"
        }
      ]
    },
    "_id": {
      "allOf": [
        {
          "$ref": "strings.json#/definitions/_id"
        },
        {
          "type": "string",
          "pattern": "^(MP)?BibliographyItem"
        }
      ]
    },
    "_rev": {
      "type": "string"
    },
    "favorited": {
      "type": "boolean"
    },
    "_revisions": {
      "type": "object",
      "properties": {
        "start": {
          "type": "integer"
        },
        "ids": {
          "type": "array",
          "items": {
            "type": "string"
          },
          "additionalItems": false
        }
      }
    },
    "createdAt": {
      "$ref": "numbers.json#/definitions/timestamp"
    },
    "updatedAt": {
      "$ref": "numbers.json#/definitions/timestamp"
    },
    "objectType": {
      "type": "string",
      "enum": [
        "BibliographyItem",
        "MPBibliographyItem"
      ]
    },
    "type": {
      "type": "string",
      "enum": [
        "article",
        "article-journal",
        "article-magazine",
        "article-newspaper",
        "bill",
        "book",
        "broadcast",
        "chapter",
        "dataset",
        "entry",
        "entry-dictionary",
        "entry-encyclopedia",
        "figure",
        "graphic",
        "interview",
        "legal_case",
        "legislation",
        "manuscript",
        "map",
        "motion_picture",
        "musical_score",
        "pamphlet",
        "paper-conference",
        "patent",
        "personal_communication",
        "post",
        "post-weblog",
        "report",
        "review",
        "review-book",
        "song",
        "speech",
        "thesis",
        "treaty",
        "webpage"
      ]
    },
    "categories": {
      "type": "array",
      "items": {
        "type": "string"
      }
    },
    "language": {
      "type": "string"
    },
    "journalAbbreviation": {
      "type": "string"
    },
    "shortTitle": {
      "type": "string"
    },
    "author": {
      "type": "array",
      "items": {
        "$ref": "MPBibliographicName.json#"
      },
      "additionalItems": false
    },
    "collection-editor": {
      "type": "array",
      "items": {
        "$ref": "MPBibliographicName.json#"
      }
    },
    "composer": {
      "type": "array",
      "items": {
        "$ref": "MPBibliographicName.json#"
      }
    },
    "container-author": {
      "type": "array",
      "items": {
        "$ref": "MPBibliographicName.json#"
      }
    },
    "director": {
      "type": "array",
      "items": {
        "$ref": "MPBibliographicName.json#"
      }
    },
    "editor": {
      "type": "array",
      "items": {
        "$ref": "MPBibliographicName.json#"
      }
    },
    "editorial-director": {
      "type": "array",
      "items": {
        "$ref": "MPBibliographicName.json#"
      }
    },
    "interviewer": {
      "type": "array",
      "items": {
        "$ref": "MPBibliographicName.json#"
      }
    },
    "illustrator": {
      "type": "array",
      "items": {
        "$ref": "MPBibliographicName.json#"
      }
    },
    "original-author": {
      "type": "array",
      "items": {
        "$ref": "MPBibliographicName.json#"
      }
    },
    "recipient": {
      "type": "array",
      "items": {
        "$ref": "MPBibliographicName.json#"
      }
    },
    "reviewed-author": {
      "type": "array",
      "items": {
        "$ref": "MPBibliographicName.json#"
      }
    },
    "translator": {
      "type": "array",
      "items": {
        "$ref": "MPBibliographicName.json#"
      }
    },
    "accessed": {
      "$ref": "MPBibliographicDate.json#"
    },
    "container": {
      "$ref": "MPBibliographicDate.json#"
    },
    "event-date": {
      "$ref": "MPBibliographicDate.json#"
    },
    "issued": {
      "$ref": "MPBibliographicDate.json#"
    },
    "original-date": {
      "$ref": "MPBibliographicDate.json#"
    },
    "submitted": {
      "$ref": "MPBibliographicDate.json#"
    },
    "abstract": {
      "type": "string"
    },
    "annote": {
      "type": "string"
    },
    "archive": {
      "type": "string"
    },
    "archive_location": {
      "type": "string"
    },
    "archive-place": {
      "type": "string"
    },
    "authority": {
      "type": "string"
    },
    "call-number": {
      "type": "string"
    },
    "chapter-number": {
      "type": "integer"
    },
    "citation-number": {
      "type": "integer"
    },
    "citation-label": {
      "type": "string"
    },
    "collection-number": {
      "type": "integer"
    },
    "collection-title": {
      "type": "string"
    },
    "container-title": {
      "type": "string"
    },
    "container-title-short": {
      "type": "string"
    },
    "dimensions": {
      "type": "string"
    },
    "DOI": {
      "type": "string"
    },
    "edition": {
      "type": "integer"
    },
    "event": {
      "type": "string"
    },
    "event-place": {
      "type": "string"
    },
    "first-reference-note-number": {
      "type": "string"
    },
    "genre": {
      "type": "string"
    },
    "ISBN": {
      "type": "string"
    },
    "ISSN": {
      "type": [
        "string",
        "array"
      ]
    },
    "issue": {
      "type": [
        "string",
        "number"
      ]
    },
    "jurisdiction": {
      "type": "string"
    },
    "keyword": {
      "type": "string"
    },
    "locator": {
      "type": "string"
    },
    "medium": {
      "type": "string"
    },
    "note": {
      "type": "string"
    },
    "number": {
      "type": "integer"
    },
    "number-of-pages": {
      "type": "integer"
    },
    "number-of-volumes": {
      "type": "integer"
    },
    "original-publisher": {
      "type": "string"
    },
    "original-publisher-place": {
      "type": "string"
    },
    "original-title": {
      "type": [
        "string",
        "array"
      ]
    },
    "page": {
      "type": "string"
    },
    "page-first": {
      "type": "string"
    },
    "PMCID": {
      "type": "string"
    },
    "PMID": {
      "type": "string"
    },
    "publisher": {
      "type": "string"
    },
    "publisher-place": {
      "type": "string"
    },
    "references": {
      "type": "string"
    },
    "reviewed-title": {
      "type": "string"
    },
    "scale": {
      "type": "string"
    },
    "section": {
      "type": "string"
    },
    "source": {
      "type": "string"
    },
    "status": {
      "type": "string"
    },
    "title": {
      "type": "string"
    },
    "title-short": {
      "type": "string"
    },
    "URL": {
      "type": "string"
    },
    "version": {
      "type": "string"
    },
    "volume": {
      "type": "string"
    },
    "year-suffix": {
      "type": "string"
    },
    "keywordIDs": {
      "type": "array",
      "items": {
        "$ref": "strings.json#/definitions/keywordId"
      }
    }
  },
  "required": [
    "library_id",
    "_id",
    "objectType",
    "type"
  ],
  "type": "object"
}
